[
    {
        "created_at": "2014-06-20 15:30:27",
        "customer_id": "19",
        "deleted_at": "",
        "deployed": "",
        "hostname": "LOGmanager",
        "id": "8",
        "ip": "91.139.14.162",
        "last_check": "2018-05-10 07:01:54",
        "licensed_to": "",
        "platform": "LM36",
        "serial": "CZ24081MPH",
        "status_id": "1",
        "updated_at": "2018-04-20 13:01:45",
        "version": "3.0.1"
    },
    {
        "created_at": "2014-07-08 14:21:59",
        "customer_id": "4",
        "deleted_at": "",
        "deployed": "",
        "hostname": "LOGmanager",
        "id": "10",
        "ip": "193.35.104.33",
        "last_check": "2018-07-26 14:00:37",
        "licensed_to": "",
        "platform": "LM36",
        "serial": "CZ24240CJQ",
        "status_id": "2",
        "updated_at": "2018-05-16 11:00:35",
        "version": "3.0.1"
    },
    {
        "created_at": "2014-07-10 11:00:53",
        "customer_id": "5",
        "deleted_at": "",
        "deployed": "",
        "hostname": "LOGmanager",
        "id": "12",
        "ip": "193.84.36.124",
        "last_check": "2018-07-26 14:01:14",
        "licensed_to": "",
        "platform": "LM36",
        "serial": "CZ24250BCT",
        "status_id": "2",
        "updated_at": "2018-05-03 13:00:14",
        "version": "3.0.1"
    },
    {
        "created_at": "2014-08-04 14:20:51",
        "customer_id": "3",
        "deleted_at": "",
        "deployed": "",
        "hostname": "LOGmanager",
        "id": "13",
        "ip": "213.195.198.96",
        "last_check": "2018-07-26 14:00:10",
        "licensed_to": "",
        "platform": "LM36",
        "serial": "CZ24300BCV",
        "status_id": "2",
        "updated_at": "2018-01-16 11:00:17",
        "version": "2.6.2"
    },
    {
        "created_at": "2014-08-04 14:24:36",
        "customer_id": "3",
        "deleted_at": "",
        "deployed": "",
        "hostname": "LOGmanager",
        "id": "14",
        "ip": "213.195.198.96",
        "last_check": "2018-07-26 14:00:10",
        "licensed_to": "",
        "platform": "LM36",
        "serial": "CZ24300BCW",
        "status_id": "2",
        "updated_at": "2018-01-16 11:00:17",
        "version": "2.6.2"
    },
    {
        "created_at": "2014-12-17 13:26:10",
        "customer_id": "10",
        "deleted_at": "",
        "deployed": "",
        "hostname": "LOGmanager",
        "id": "24",
        "ip": "195.113.135.252",
        "last_check": "2018-07-18 11:00:28",
        "licensed_to": "",
        "platform": "LM36",
        "serial": "CZ244905PD",
        "status_id": "3",
        "updated_at": "2015-11-16 13:00:17",
        "version": "1.6.2"
    },
    {
        "created_at": "2014-12-19 10:40:49",
        "customer_id": "8",
        "deleted_at": "",
        "deployed": "",
        "hostname": "LOGmanager",
        "id": "25",
        "ip": "85.239.64.35",
        "last_check": "2018-07-26 14:00:37",
        "licensed_to": "",
        "platform": "LM36",
        "serial": "CZ24500KK0",
        "status_id": "2",
        "updated_at": "2018-05-02 11:00:22",
        "version": "3.0.1"
    },
    {
        "created_at": "2015-01-14 13:07:35",
        "customer_id": "11",
        "deleted_at": "",
        "deployed": "",
        "hostname": "LOGmanager",
        "id": "27",
        "ip": "46.13.3.11",
        "last_check": "2018-07-26 14:00:37",
        "licensed_to": "",
        "platform": "LM36",
        "serial": "CZ250106LW",
        "status_id": "2",
        "updated_at": "2018-05-02 22:00:08",
        "version": "3.0.1"
    },
    {
        "created_at": "2015-01-14 13:22:10",
        "customer_id": "6",
        "deleted_at": "",
        "deployed": "",
        "hostname": "LOGmanager",
        "id": "28",
        "ip": "91.139.14.162",
        "last_check": "2015-05-01 10:04:11",
        "licensed_to": "",
        "platform": "LM36",
        "serial": "CZ250106H0",
        "status_id": "4",
        "updated_at": "2015-03-02 16:00:48",
        "version": "1.0.3r"
    },
    {
        "created_at": "2015-01-14 13:29:42",
        "customer_id": "11",
        "deleted_at": "",
        "deployed": "",
        "hostname": "LOGmanager",
        "id": "29",
        "ip": "46.13.3.11",
        "last_check": "2018-07-01 13:00:30",
        "licensed_to": "",
        "platform": "LM36",
        "serial": "CZ250106LX",
        "status_id": "2",
        "updated_at": "2018-05-02 22:00:15",
        "version": "3.0.1"
    },
    {
        "created_at": "2015-01-14 13:29:42",
        "customer_id": "13",
        "deleted_at": "",
        "deployed": "",
        "hostname": "LOGmanager",
        "id": "30",
        "ip": "195.113.106.12",
        "last_check": "2018-07-26 14:00:37",
        "licensed_to": "",
        "platform": "LM36",
        "serial": "CZ3433AWNB",
        "status_id": "2",
        "updated_at": "2018-05-02 12:01:26",
        "version": "3.0.1"
    },
    {
        "created_at": "2015-10-22 12:42:50",
        "customer_id": "1",
        "deleted_at": "",
        "deployed": "",
        "hostname": "LOGmanager",
        "id": "34",
        "ip": "188.120.220.241",
        "last_check": "2018-07-26 14:00:36",
        "licensed_to": "",
        "platform": "LM12B",
        "serial": "CZ254002BT",
        "status_id": "1",
        "updated_at": "2018-05-23 12:01:45",
        "version": "3.0.1"
    },
    {
        "created_at": "2015-11-04 16:15:29",
        "customer_id": "14",
        "deleted_at": "",
        "deployed": "",
        "hostname": "LOGmanager",
        "id": "35",
        "ip": "193.85.22.99",
        "last_check": "2018-07-26 14:00:37",
        "licensed_to": "",
        "platform": "LM36B",
        "serial": "CZJ5430Q44",
        "status_id": "2",
        "updated_at": "2018-05-02 22:00:10",
        "version": "3.0.1"
    },
    {
        "created_at": "2015-11-09 19:20:12",
        "customer_id": "14",
        "deleted_at": "",
        "deployed": "",
        "hostname": "LOGmanager",
        "id": "37",
        "ip": "193.85.22.99",
        "last_check": "2018-07-26 14:00:38",
        "licensed_to": "",
        "platform": "LM36B",
        "serial": "CZJ5430Q45",
        "status_id": "2",
        "updated_at": "2018-05-02 22:00:28",
        "version": "3.0.1"
    },
    {
        "created_at": "2015-11-13 10:16:28",
        "customer_id": "15",
        "deleted_at": "",
        "deployed": "",
        "hostname": "LOGmanager",
        "id": "38",
        "ip": "94.199.40.135",
        "last_check": "2018-07-26 14:00:37",
        "licensed_to": "",
        "platform": "LM36B",
        "serial": "CZJ54206HR",
        "status_id": "2",
        "updated_at": "2018-05-25 11:00:08",
        "version": "3.0.1"
    },
    {
        "created_at": "2015-11-13 10:16:32",
        "customer_id": "15",
        "deleted_at": "",
        "deployed": "",
        "hostname": "LOGmanager",
        "id": "39",
        "ip": "94.199.40.135",
        "last_check": "2018-07-26 14:00:36",
        "licensed_to": "",
        "platform": "LM36B",
        "serial": "CZJ54206HQ",
        "status_id": "2",
        "updated_at": "2018-05-25 11:00:08",
        "version": "3.0.1"
    },
    {
        "created_at": "2015-11-18 10:43:35",
        "customer_id": "18",
        "deleted_at": "",
        "deployed": "",
        "hostname": "LOGmanager",
        "id": "40",
        "ip": "91.139.14.162",
        "last_check": "2017-07-27 11:00:26",
        "licensed_to": "",
        "platform": "LM12B",
        "serial": "CZ254002BS",
        "status_id": "4",
        "updated_at": "2017-07-25 13:00:07",
        "version": "2.4.0"
    },
    {
        "created_at": "2016-01-08 12:50:40",
        "customer_id": "21",
        "deleted_at": "",
        "deployed": "",
        "hostname": "LOGmanager",
        "id": "41",
        "ip": "185.65.93.2",
        "last_check": "2018-07-26 14:00:37",
        "licensed_to": "",
        "platform": "LM36B",
        "serial": "CZJ553051B",
        "status_id": "2",
        "updated_at": "2018-05-23 11:08:36",
        "version": "3.0.1"
    },
    {
        "created_at": "2016-01-13 13:03:03",
        "customer_id": "43",
        "deleted_at": "",
        "deployed": "",
        "hostname": "LOGmanager",
        "id": "43",
        "ip": "91.139.14.168",
        "last_check": "2018-07-26 14:01:13",
        "licensed_to": "",
        "platform": "LMDEMO1",
        "serial": "GEMY53800MWL",
        "status_id": "1",
        "updated_at": "2018-07-26 14:01:13",
        "version": "0.0.1-20180726_1458"
    },
    {
        "created_at": "2016-01-15 16:46:03",
        "customer_id": "25",
        "deleted_at": "",
        "deployed": "",
        "hostname": "LOGmanager",
        "id": "44",
        "ip": "195.113.185.145",
        "last_check": "2018-07-26 14:00:36",
        "licensed_to": "",
        "platform": "LMDEMO1",
        "serial": "GEMY549004HX",
        "status_id": "1",
        "updated_at": "2018-05-10 16:01:32",
        "version": "3.0.1"
    },
    {
        "created_at": "2016-01-20 14:23:32",
        "customer_id": "22",
        "deleted_at": "",
        "deployed": "",
        "hostname": "LOGmanager",
        "id": "45",
        "ip": "89.24.96.122",
        "last_check": "2018-07-26 14:00:35",
        "licensed_to": "",
        "platform": "LMDEMO1",
        "serial": "GEMY5490048Z",
        "status_id": "1",
        "updated_at": "2018-05-03 07:01:46",
        "version": "3.0.1"
    },
    {
        "created_at": "2016-01-20 14:37:40",
        "customer_id": "23",
        "deleted_at": "",
        "deployed": "",
        "hostname": "LOGmanager",
        "id": "46",
        "ip": "62.77.90.210",
        "last_check": "2018-07-26 14:00:35",
        "licensed_to": "",
        "platform": "LMDEMO1",
        "serial": "GEMY54900480",
        "status_id": "1",
        "updated_at": "2018-06-27 07:33:57",
        "version": "3.0.1"
    },
    {
        "created_at": "2016-01-20 14:40:41",
        "customer_id": "24",
        "deleted_at": "",
        "deployed": "",
        "hostname": "LOGmanager",
        "id": "47",
        "ip": "82.113.61.253",
        "last_check": "2018-01-17 15:16:18",
        "licensed_to": "",
        "platform": "LMDEMO1",
        "serial": "GEMY549004Q2",
        "status_id": "1",
        "updated_at": "2018-01-17 15:16:18",
        "version": "2.6.2"
    },
    {
        "created_at": "2016-03-16 14:56:34",
        "customer_id": "27",
        "deleted_at": "",
        "deployed": "",
        "hostname": "LOGmanager",
        "id": "48",
        "ip": "195.113.165.12",
        "last_check": "2018-07-26 14:00:36",
        "licensed_to": "",
        "platform": "LMDEMO1",
        "serial": "GEMY60100KA6",
        "status_id": "1",
        "updated_at": "2018-04-20 14:00:48",
        "version": "3.0.1"
    },
    {
        "created_at": "2016-03-17 09:15:51",
        "customer_id": "29",
        "deleted_at": "",
        "deployed": "",
        "hostname": "LOGmanager",
        "id": "49",
        "ip": "85.239.82.33",
        "last_check": "2018-07-26 14:00:36",
        "licensed_to": "",
        "platform": "LMDEMO1",
        "serial": "GEMY60100LDB",
        "status_id": "1",
        "updated_at": "2018-05-02 15:00:38",
        "version": "3.0.1"
    },
    {
        "created_at": "2016-03-23 13:15:55",
        "customer_id": "30",
        "deleted_at": "",
        "deployed": "",
        "hostname": "LOGmanager",
        "id": "50",
        "ip": "195.113.183.190",
        "last_check": "2018-07-26 14:00:37",
        "licensed_to": "",
        "platform": "LM36B",
        "serial": "CZJ6100W6L",
        "status_id": "2",
        "updated_at": "2018-05-02 13:00:29",
        "version": "3.0.1"
    },
    {
        "created_at": "2016-04-01 10:55:35",
        "customer_id": "26",
        "deleted_at": "",
        "deployed": "",
        "hostname": "LOGmanager",
        "id": "51",
        "ip": "193.16.104.229",
        "last_check": "2018-07-26 14:00:37",
        "licensed_to": "",
        "platform": "LM36B",
        "serial": "CZJ612067V",
        "status_id": "3",
        "updated_at": "2018-05-03 08:00:52",
        "version": "3.0.1"
    },
    {
        "created_at": "2016-04-19 06:31:59",
        "customer_id": "33",
        "deleted_at": "",
        "deployed": "",
        "hostname": "LOGmanager",
        "id": "52",
        "ip": "195.250.140.122",
        "last_check": "2017-09-20 13:00:24",
        "licensed_to": "",
        "platform": "LMDEMO1",
        "serial": "GEMY60100G10",
        "status_id": "1",
        "updated_at": "2017-02-15 14:00:12",
        "version": "2.3.0"
    },
    {
        "created_at": "2016-04-19 06:59:45",
        "customer_id": "49",
        "deleted_at": "",
        "deployed": "",
        "hostname": "LOGmanager",
        "id": "53",
        "ip": "80.188.61.150",
        "last_check": "2018-07-26 08:00:09",
        "licensed_to": "",
        "platform": "LMDEMO1",
        "serial": "GEMY60100L7B",
        "status_id": "1",
        "updated_at": "2018-05-07 06:56:07",
        "version": "3.0.1"
    },
    {
        "created_at": "2016-05-09 10:30:24",
        "customer_id": "31",
        "deleted_at": "",
        "deployed": "",
        "hostname": "LOGmanager",
        "id": "54",
        "ip": "91.139.2.250",
        "last_check": "2018-07-26 14:00:10",
        "licensed_to": "",
        "platform": "LM36B",
        "serial": "CZJ61707RW",
        "status_id": "3",
        "updated_at": "2017-05-03 07:00:07",
        "version": "2.4.0"
    },
    {
        "created_at": "2016-06-17 09:14:10",
        "customer_id": "32",
        "deleted_at": "",
        "deployed": "",
        "hostname": "LOGmanager",
        "id": "55",
        "ip": "195.113.160.27",
        "last_check": "2018-07-26 14:00:36",
        "licensed_to": "",
        "platform": "LOGM-48TB-D",
        "serial": "3J8L8D2",
        "status_id": "2",
        "updated_at": "2018-05-02 12:01:24",
        "version": "3.0.1"
    },
    {
        "created_at": "2016-07-12 15:20:47",
        "customer_id": "34",
        "deleted_at": "",
        "deployed": "",
        "hostname": "LOGmanager",
        "id": "56",
        "ip": "146.102.167.23",
        "last_check": "2018-07-26 14:00:09",
        "licensed_to": "",
        "platform": "LOGM-48TB-D",
        "serial": "5J3SJD2",
        "status_id": "2",
        "updated_at": "2018-01-24 17:00:20",
        "version": "2.6.2"
    },
    {
        "created_at": "2016-07-26 07:08:03",
        "customer_id": "39",
        "deleted_at": "",
        "deployed": "",
        "hostname": "LOGmanager",
        "id": "57",
        "ip": "84.42.225.26",
        "last_check": "2018-07-26 14:00:36",
        "licensed_to": "",
        "platform": "LMDEMO1",
        "serial": "GEMY62400N2D",
        "status_id": "1",
        "updated_at": "2018-05-02 06:00:58",
        "version": "3.0.1"
    },
    {
        "created_at": "2016-07-26 12:24:16",
        "customer_id": "91",
        "deleted_at": "",
        "deployed": "",
        "hostname": "LOGmanager",
        "id": "58",
        "ip": "95.80.198.220",
        "last_check": "2018-02-09 00:00:16",
        "licensed_to": "",
        "platform": "LMDEMO1",
        "serial": "GEMY62400NMS",
        "status_id": "1",
        "updated_at": "2017-12-16 19:00:04",
        "version": "2.6.1"
    },
    {
        "created_at": "2016-08-23 14:38:10",
        "customer_id": "35",
        "deleted_at": "",
        "deployed": "",
        "hostname": "LOGmanager",
        "id": "59",
        "ip": "212.24.154.101",
        "last_check": "2018-07-26 14:00:09",
        "licensed_to": "",
        "platform": "LOGM-16TB-D",
        "serial": "J36RJD2",
        "status_id": "2",
        "updated_at": "2018-01-09 14:00:02",
        "version": "2.6.1"
    },
    {
        "created_at": "2016-09-20 07:17:18",
        "customer_id": "36",
        "deleted_at": "",
        "deployed": "",
        "hostname": "LOGmanager",
        "id": "60",
        "ip": "89.24.106.242",
        "last_check": "2018-07-26 14:00:36",
        "licensed_to": "",
        "platform": "LOGM-48TB-D",
        "serial": "6BNZ3G2",
        "status_id": "2",
        "updated_at": "2018-05-31 08:01:28",
        "version": "3.0.1"
    },
    {
        "created_at": "2016-11-09 14:56:30",
        "customer_id": "93",
        "deleted_at": "",
        "deployed": "",
        "hostname": "LOGmanager",
        "id": "61",
        "ip": "91.139.14.162",
        "last_check": "2018-07-26 14:00:35",
        "licensed_to": "",
        "platform": "LMDEMO1",
        "serial": "GEMY62900A78",
        "status_id": "1",
        "updated_at": "2018-04-23 13:00:55",
        "version": "3.0.1"
    },
    {
        "created_at": "2016-11-16 09:42:28",
        "customer_id": "1",
        "deleted_at": "",
        "deployed": "",
        "hostname": "LOGmanager",
        "id": "62",
        "ip": "91.139.14.162",
        "last_check": "2018-07-26 14:00:36",
        "licensed_to": "",
        "platform": "LMDEMO1",
        "serial": "GEMY63100NLJ",
        "status_id": "1",
        "updated_at": "2018-04-26 09:01:49",
        "version": "3.0.1"
    },
    {
        "created_at": "2016-11-16 16:49:19",
        "customer_id": "1",
        "deleted_at": "",
        "deployed": "",
        "hostname": "LOGmanager",
        "id": "63",
        "ip": "91.139.14.162",
        "last_check": "2018-02-12 16:49:12",
        "licensed_to": "",
        "platform": "LOGM-FW-HW-I",
        "serial": "GEMY63100NF4",
        "status_id": "1",
        "updated_at": "2017-03-07 16:34:13",
        "version": "1.0.0"
    },
    {
        "created_at": "2016-11-23 08:25:48",
        "customer_id": "48",
        "deleted_at": "",
        "deployed": "",
        "hostname": "LOGmanager",
        "id": "66",
        "ip": "89.111.64.130",
        "last_check": "2017-06-06 07:00:19",
        "licensed_to": "",
        "platform": "LMDEMO1",
        "serial": "GEMY629009TN",
        "status_id": "4",
        "updated_at": "2017-02-01 13:00:22",
        "version": "2.3.0"
    },
    {
        "created_at": "2016-11-23 12:12:48",
        "customer_id": "1",
        "deleted_at": "",
        "deployed": "",
        "hostname": "LOGmanager",
        "id": "67",
        "ip": "194.12.246.105",
        "last_check": "2018-07-25 07:01:18",
        "licensed_to": "",
        "platform": "LMDEMO1",
        "serial": "GEMY63100JJR",
        "status_id": "1",
        "updated_at": "2018-05-02 12:01:24",
        "version": "3.0.1"
    },
    {
        "created_at": "2016-11-23 13:17:19",
        "customer_id": "47",
        "deleted_at": "",
        "deployed": "",
        "hostname": "LOGmanager",
        "id": "68",
        "ip": "62.44.12.218",
        "last_check": "2018-07-26 14:00:36",
        "licensed_to": "",
        "platform": "LMDEMO1",
        "serial": "GEMY63100MCP",
        "status_id": "1",
        "updated_at": "2018-05-02 11:00:20",
        "version": "3.0.1"
    },
    {
        "created_at": "2016-12-07 17:17:52",
        "customer_id": "37",
        "deleted_at": "",
        "deployed": "",
        "hostname": "LOGmanager",
        "id": "71",
        "ip": "147.32.100.26",
        "last_check": "2018-07-26 14:00:35",
        "licensed_to": "",
        "platform": "LOGM-16TB-D",
        "serial": "7NMLWG2",
        "status_id": "2",
        "updated_at": "2018-04-30 18:00:24",
        "version": "3.0.1"
    },
    {
        "created_at": "2016-12-08 14:22:08",
        "customer_id": "38",
        "deleted_at": "",
        "deployed": "",
        "hostname": "LOGmanager",
        "id": "72",
        "ip": "109.81.241.210",
        "last_check": "2018-07-26 14:00:36",
        "licensed_to": "",
        "platform": "LOGM-48TB-D",
        "serial": "428NWG2",
        "status_id": "1",
        "updated_at": "2018-05-14 12:00:11",
        "version": "3.0.1"
    },
    {
        "created_at": "2016-12-15 14:37:42",
        "customer_id": "38",
        "deleted_at": "",
        "deployed": "",
        "hostname": "LOGmanager",
        "id": "73",
        "ip": "109.81.241.210",
        "last_check": "2018-07-26 14:00:35",
        "licensed_to": "",
        "platform": "LOGM-48TB-D",
        "serial": "422RWG2",
        "status_id": "1",
        "updated_at": "2018-05-14 12:00:10",
        "version": "3.0.1"
    },
    {
        "created_at": "2017-01-04 13:39:34",
        "customer_id": "41",
        "deleted_at": "",
        "deployed": "",
        "hostname": "LOGmanager",
        "id": "77",
        "ip": "195.5.186.254",
        "last_check": "2018-07-26 14:00:35",
        "licensed_to": "",
        "platform": "LOGM-16TB-D",
        "serial": "23XQ1H2",
        "status_id": "1",
        "updated_at": "2018-05-02 12:01:26",
        "version": "3.0.1"
    },
    {
        "created_at": "2017-01-04 13:44:17",
        "customer_id": "40",
        "deleted_at": "",
        "deployed": "",
        "hostname": "LOGmanager",
        "id": "78",
        "ip": "195.113.132.25",
        "last_check": "2018-07-26 14:00:10",
        "licensed_to": "",
        "platform": "LOGM-48TB-D",
        "serial": "D3HJZG2",
        "status_id": "1",
        "updated_at": "2018-01-26 15:00:09",
        "version": "2.6.2"
    },
    {
        "created_at": "2017-01-05 14:05:30",
        "customer_id": "56",
        "deleted_at": "",
        "deployed": "",
        "hostname": "LOGmanager",
        "id": "82",
        "ip": "195.88.164.253",
        "last_check": "2018-07-26 14:00:36",
        "licensed_to": "",
        "platform": "LOGM-48TB-D",
        "serial": "F4TBZG2",
        "status_id": "1",
        "updated_at": "2018-05-02 11:00:21",
        "version": "3.0.1"
    },
    {
        "created_at": "2017-01-06 13:07:18",
        "customer_id": "44",
        "deleted_at": "",
        "deployed": "",
        "hostname": "LOGmanager",
        "id": "84",
        "ip": "195.5.186.254",
        "last_check": "2018-07-26 14:00:09",
        "licensed_to": "",
        "platform": "LOGM-16TB-D",
        "serial": "23ZR1H2",
        "status_id": "1",
        "updated_at": "2017-05-05 07:00:28",
        "version": "2.4.0"
    },
    {
        "created_at": "2017-01-06 13:27:52",
        "customer_id": "45",
        "deleted_at": "",
        "deployed": "",
        "hostname": "LOGmanager",
        "id": "85",
        "ip": "90.182.124.69",
        "last_check": "2018-07-26 14:00:35",
        "licensed_to": "",
        "platform": "LOGM-16TB-D",
        "serial": "23SP1H2",
        "status_id": "1",
        "updated_at": "2018-05-03 04:51:33",
        "version": "3.0.1"
    },
    {
        "created_at": "2017-01-06 13:36:46",
        "customer_id": "42",
        "deleted_at": "",
        "deployed": "",
        "hostname": "LOGmanager",
        "id": "86",
        "ip": "195.5.186.254",
        "last_check": "2018-07-26 14:00:09",
        "licensed_to": "",
        "platform": "LOGM-48TB-D",
        "serial": "FXTFZG2",
        "status_id": "1",
        "updated_at": "2018-01-23 08:00:29",
        "version": "2.6.2"
    },
    {
        "created_at": "2017-01-26 12:49:23",
        "customer_id": "46",
        "deleted_at": "",
        "deployed": "",
        "hostname": "LOGmanager",
        "id": "93",
        "ip": "193.179.130.49",
        "last_check": "2018-07-26 14:00:36",
        "licensed_to": "",
        "platform": "LOGM-16TB-H",
        "serial": "CZJ70306CD",
        "status_id": "1",
        "updated_at": "2018-07-20 05:59:46",
        "version": "3.0.1"
    },
    {
        "created_at": "2017-03-13 14:00:41",
        "customer_id": "48",
        "deleted_at": "",
        "deployed": "",
        "hostname": "LOGmanager",
        "id": "97",
        "ip": "89.111.64.130",
        "last_check": "2018-07-26 14:00:37",
        "licensed_to": "",
        "platform": "LOGM-48TB-H",
        "serial": "CZJ70906D2",
        "status_id": "1",
        "updated_at": "2018-05-31 18:00:18",
        "version": "3.0.1"
    },
    {
        "created_at": "2017-03-22 11:31:01",
        "customer_id": "1",
        "deleted_at": "",
        "deployed": "",
        "hostname": "LOGmanager",
        "id": "98",
        "ip": "94.199.47.209",
        "last_check": "2018-07-26 14:00:35",
        "licensed_to": "",
        "platform": "LMDEMO1",
        "serial": "GEMY63100KRY",
        "status_id": "1",
        "updated_at": "2018-05-03 08:00:52",
        "version": "3.0.1"
    },
    {
        "created_at": "2017-04-04 06:51:23",
        "customer_id": "1",
        "deleted_at": "",
        "deployed": "",
        "hostname": "LOGmanager",
        "id": "99",
        "ip": "194.96.75.113",
        "last_check": "2018-05-04 08:00:34",
        "licensed_to": "",
        "platform": "LMDEMO1",
        "serial": "GEMY63100N57",
        "status_id": "1",
        "updated_at": "2018-04-30 19:01:27",
        "version": "3.0.1"
    },
    {
        "created_at": "2017-04-12 08:45:20",
        "customer_id": "51",
        "deleted_at": "",
        "deployed": "",
        "hostname": "LOGmanager",
        "id": "101",
        "ip": "195.5.186.254",
        "last_check": "2018-07-26 14:00:35",
        "licensed_to": "",
        "platform": "LOGM-16TB-D",
        "serial": "DQ1DXJ2",
        "status_id": "1",
        "updated_at": "2018-05-24 11:24:11",
        "version": "3.0.1"
    },
    {
        "created_at": "2017-04-12 14:00:08",
        "customer_id": "50",
        "deleted_at": "",
        "deployed": "",
        "hostname": "LOGmanager",
        "id": "102",
        "ip": "46.13.6.34",
        "last_check": "2018-07-26 14:00:35",
        "licensed_to": "",
        "platform": "LOGM-16TB-D",
        "serial": "DQ6DXJ2",
        "status_id": "1",
        "updated_at": "2018-05-02 11:23:37",
        "version": "3.0.1"
    },
    {
        "created_at": "2017-04-13 12:23:25",
        "customer_id": "63",
        "deleted_at": "",
        "deployed": "",
        "hostname": "LOGmanager",
        "id": "103",
        "ip": "77.240.187.98",
        "last_check": "2018-07-26 14:00:35",
        "licensed_to": "",
        "platform": "LMDEMO1",
        "serial": "GEMY701007HU",
        "status_id": "1",
        "updated_at": "2018-05-03 15:00:22",
        "version": "3.0.1"
    },
    {
        "created_at": "2017-04-13 12:46:42",
        "customer_id": "63",
        "deleted_at": "",
        "deployed": "",
        "hostname": "LOGmanager",
        "id": "104",
        "ip": "95.80.223.14",
        "last_check": "2018-07-18 07:01:17",
        "licensed_to": "",
        "platform": "LMDEMO1",
        "serial": "GEMY701008GJ",
        "status_id": "1",
        "updated_at": "2018-07-16 07:01:50",
        "version": "3.0.1"
    },
    {
        "created_at": "2017-04-13 13:04:13",
        "customer_id": "1",
        "deleted_at": "",
        "deployed": "",
        "hostname": "LOGmanager",
        "id": "105",
        "ip": "91.139.14.162",
        "last_check": "2018-07-26 14:00:36",
        "licensed_to": "",
        "platform": "LMDEMO1",
        "serial": "GEMY65100GCX",
        "status_id": "1",
        "updated_at": "2018-07-26 14:00:36",
        "version": "0.0.1-20180726_1458"
    },
    {
        "created_at": "2017-04-13 13:22:49",
        "customer_id": "63",
        "deleted_at": "",
        "deployed": "",
        "hostname": "LOGmanager",
        "id": "106",
        "ip": "81.88.142.12",
        "last_check": "2018-07-02 08:00:38",
        "licensed_to": "",
        "platform": "LMDEMO1",
        "serial": "GEMY703006BD",
        "status_id": "1",
        "updated_at": "2018-06-14 13:00:55",
        "version": "3.0.1"
    },
    {
        "created_at": "2017-04-13 13:37:11",
        "customer_id": "67",
        "deleted_at": "",
        "deployed": "",
        "hostname": "LOGmanager",
        "id": "107",
        "ip": "77.236.217.34",
        "last_check": "2018-07-26 14:00:09",
        "licensed_to": "",
        "platform": "LMDEMO1",
        "serial": "GEMY701007TC",
        "status_id": "1",
        "updated_at": "2017-12-18 08:00:26",
        "version": "2.6.1"
    },
    {
        "created_at": "2017-04-25 09:24:40",
        "customer_id": "1",
        "deleted_at": "",
        "deployed": "",
        "hostname": "LOGmanager",
        "id": "108",
        "ip": "46.13.166.117",
        "last_check": "2018-07-26 14:00:35",
        "licensed_to": "",
        "platform": "LMDEMO1",
        "serial": "GEMY701007WE",
        "status_id": "1",
        "updated_at": "2018-06-22 06:01:16",
        "version": "3.0.1"
    },
    {
        "created_at": "2017-04-25 15:47:53",
        "customer_id": "52",
        "deleted_at": "",
        "deployed": "",
        "hostname": "LOGmanager",
        "id": "109",
        "ip": "195.5.186.254",
        "last_check": "2018-07-26 14:00:35",
        "licensed_to": "",
        "platform": "LOGM-48TB-D",
        "serial": "DQBGXJ2",
        "status_id": "1",
        "updated_at": "2018-05-02 15:00:37",
        "version": "3.0.1"
    },
    {
        "created_at": "2017-05-03 08:01:25",
        "customer_id": "1",
        "deleted_at": "",
        "deployed": "",
        "hostname": "LOGmanager",
        "id": "110",
        "ip": "195.5.186.254",
        "last_check": "2017-07-14 07:00:16",
        "licensed_to": "",
        "platform": "LOGM-FW-VM",
        "serial": "VMW-564d8c932d3e72a7-471f27110ae89f7f",
        "status_id": "1",
        "updated_at": "2017-05-03 08:01:25",
        "version": "fwd-1.0.1"
    },
    {
        "created_at": "2017-05-03 09:00:10",
        "customer_id": "1",
        "deleted_at": "",
        "deployed": "",
        "hostname": "LOGmanager",
        "id": "111",
        "ip": "195.5.186.254",
        "last_check": "2017-07-07 07:00:14",
        "licensed_to": "",
        "platform": "LOGM-FW-VM",
        "serial": "VMW-564d1333d3ce9196-3c453ac425ef6dc3",
        "status_id": "1",
        "updated_at": "2017-05-03 09:00:10",
        "version": "fwd-1.0.1"
    },
    {
        "created_at": "2017-05-05 13:58:45",
        "customer_id": "62",
        "deleted_at": "",
        "deployed": "",
        "hostname": "LOGmanager",
        "id": "112",
        "ip": "194.213.41.2",
        "last_check": "2018-03-09 08:00:37",
        "licensed_to": "",
        "platform": "LOGM-48TB-H",
        "serial": "CZJ7160X36",
        "status_id": "1",
        "updated_at": "2018-02-15 07:00:10",
        "version": "2.6.2"
    },
    {
        "created_at": "2017-05-09 14:14:08",
        "customer_id": "53",
        "deleted_at": "",
        "deployed": "",
        "hostname": "LOGmanager",
        "id": "113",
        "ip": "195.5.186.254",
        "last_check": "2018-07-26 14:00:36",
        "licensed_to": "",
        "platform": "LOGM-16TB-D",
        "serial": "9QGSYJ2",
        "status_id": "1",
        "updated_at": "2018-05-02 20:01:59",
        "version": "3.0.1"
    },
    {
        "created_at": "2017-05-10 11:28:45",
        "customer_id": "54",
        "deleted_at": "",
        "deployed": "",
        "hostname": "LOGmanager",
        "id": "115",
        "ip": "195.5.186.254",
        "last_check": "2018-07-26 14:00:36",
        "licensed_to": "",
        "platform": "LOGM-16TB-D",
        "serial": "9QHLYJ2",
        "status_id": "1",
        "updated_at": "2018-05-02 11:10:49",
        "version": "3.0.1"
    },
    {
        "created_at": "2017-05-16 14:41:26",
        "customer_id": "55",
        "deleted_at": "",
        "deployed": "",
        "hostname": "LOGmanager",
        "id": "116",
        "ip": "194.108.6.18",
        "last_check": "2018-07-26 14:00:35",
        "licensed_to": "",
        "platform": "LOGM-48TB-D",
        "serial": "9QDKYJ2",
        "status_id": "1",
        "updated_at": "2018-05-03 12:01:08",
        "version": "3.0.1"
    },
    {
        "created_at": "2017-05-17 09:29:18",
        "customer_id": "64",
        "deleted_at": "",
        "deployed": "",
        "hostname": "LOGmanager",
        "id": "117",
        "ip": "193.87.33.60",
        "last_check": "2018-07-26 14:00:09",
        "licensed_to": "",
        "platform": "LMDEMO1",
        "serial": "GEMY71200KU9",
        "status_id": "1",
        "updated_at": "2018-03-07 12:00:18",
        "version": "2.6.2"
    },
    {
        "created_at": "2017-05-17 11:40:59",
        "customer_id": "64",
        "deleted_at": "",
        "deployed": "",
        "hostname": "LOGmanager",
        "id": "118",
        "ip": "185.50.213.214",
        "last_check": "2018-07-03 14:01:01",
        "licensed_to": "",
        "platform": "LMDEMO1",
        "serial": "GEMY71200JR5",
        "status_id": "1",
        "updated_at": "2018-05-04 07:01:30",
        "version": "3.0.1"
    },
    {
        "created_at": "2017-05-17 11:51:24",
        "customer_id": "64",
        "deleted_at": "",
        "deployed": "",
        "hostname": "LOGmanager",
        "id": "119",
        "ip": "37.61.167.141",
        "last_check": "2018-07-26 14:00:35",
        "licensed_to": "",
        "platform": "LMDEMO1",
        "serial": "GEMY71200KAQ",
        "status_id": "1",
        "updated_at": "2018-05-02 13:00:28",
        "version": "3.0.1"
    },
    {
        "created_at": "2017-05-17 12:01:33",
        "customer_id": "64",
        "deleted_at": "",
        "deployed": "",
        "hostname": "LOGmanager",
        "id": "120",
        "ip": "91.236.82.75",
        "last_check": "2018-07-26 14:00:36",
        "licensed_to": "",
        "platform": "LMDEMO1",
        "serial": "GEMY71200KQF",
        "status_id": "1",
        "updated_at": "2018-05-16 13:00:42",
        "version": "3.0.1"
    },
    {
        "created_at": "2017-05-17 12:15:50",
        "customer_id": "64",
        "deleted_at": "",
        "deployed": "",
        "hostname": "LOGmanager",
        "id": "121",
        "ip": "78.24.10.132",
        "last_check": "2018-06-11 13:00:25",
        "licensed_to": "",
        "platform": "LMDEMO1",
        "serial": "GEMY71200KQM",
        "status_id": "1",
        "updated_at": "2018-02-08 01:00:02",
        "version": "2.6.2"
    },
    {
        "created_at": "2017-05-30 09:46:13",
        "customer_id": "61",
        "deleted_at": "",
        "deployed": "",
        "hostname": "LOGmanager",
        "id": "122",
        "ip": "185.17.116.233",
        "last_check": "2018-07-26 14:00:36",
        "licensed_to": "",
        "platform": "LOGM-48TB-H",
        "serial": "CZJ719000B",
        "status_id": "1",
        "updated_at": "2018-05-03 10:01:00",
        "version": "3.0.1"
    },
    {
        "created_at": "2017-05-30 09:46:22",
        "customer_id": "61",
        "deleted_at": "",
        "deployed": "",
        "hostname": "LOGmanager",
        "id": "123",
        "ip": "185.17.118.242",
        "last_check": "2018-07-26 14:00:36",
        "licensed_to": "",
        "platform": "LOGM-48TB-H",
        "serial": "CZJ7190009",
        "status_id": "1",
        "updated_at": "2018-05-09 11:00:27",
        "version": "3.0.1"
    },
    {
        "created_at": "2017-06-30 08:00:27",
        "customer_id": "1",
        "deleted_at": "",
        "deployed": "",
        "hostname": "LOGmanager",
        "id": "124",
        "ip": "193.32.56.81",
        "last_check": "2017-07-26 11:00:31",
        "licensed_to": "",
        "platform": "LOGM-FW-VM",
        "serial": "VMW-42393fcf588a522a-a23ab07363ddb66a",
        "status_id": "1",
        "updated_at": "2017-06-30 08:00:27",
        "version": "fwd-1.0.1"
    },
    {
        "created_at": "2017-06-30 12:46:30",
        "customer_id": "57",
        "deleted_at": "",
        "deployed": "",
        "hostname": "LOGmanager",
        "id": "125",
        "ip": "77.104.251.226",
        "last_check": "2018-07-26 14:00:36",
        "licensed_to": "",
        "platform": "LOGM-48TB-D",
        "serial": "61QYMK2",
        "status_id": "1",
        "updated_at": "2018-05-03 06:47:54",
        "version": "3.0.1"
    },
    {
        "created_at": "2017-07-12 07:06:29",
        "customer_id": "58",
        "deleted_at": "",
        "deployed": "",
        "hostname": "LOGmanager",
        "id": "126",
        "ip": "213.81.151.126",
        "last_check": "2018-07-26 14:00:36",
        "licensed_to": "",
        "platform": "LOGM-16TB-D",
        "serial": "5XFYMK2",
        "status_id": "1",
        "updated_at": "2018-05-03 09:01:55",
        "version": "3.0.1"
    },
    {
        "created_at": "2017-07-12 07:10:32",
        "customer_id": "60",
        "deleted_at": "",
        "deployed": "",
        "hostname": "LOGmanager",
        "id": "127",
        "ip": "195.5.186.254",
        "last_check": "2018-07-26 14:00:35",
        "licensed_to": "",
        "platform": "LOGM-16TB-D",
        "serial": "5XGWMK2",
        "status_id": "1",
        "updated_at": "2018-05-03 02:00:25",
        "version": "3.0.1"
    },
    {
        "created_at": "2017-07-17 10:54:46",
        "customer_id": "65",
        "deleted_at": "",
        "deployed": "",
        "hostname": "LOGmanager",
        "id": "128",
        "ip": "195.39.121.68",
        "last_check": "2018-07-26 14:00:36",
        "licensed_to": "",
        "platform": "LMDEMO1",
        "serial": "GEMY719008RT",
        "status_id": "1",
        "updated_at": "2018-05-10 12:01:14",
        "version": "3.0.1"
    },
    {
        "created_at": "2017-08-07 13:55:40",
        "customer_id": "8",
        "deleted_at": "",
        "deployed": "",
        "hostname": "LOGmanager",
        "id": "132",
        "ip": "85.239.64.38",
        "last_check": "2018-07-26 14:00:34",
        "licensed_to": "",
        "platform": "LOGM-48TB-D",
        "serial": "38RVXK2",
        "status_id": "1",
        "updated_at": "2018-05-02 12:01:24",
        "version": "3.0.1"
    },
    {
        "created_at": "2017-08-10 12:00:16",
        "customer_id": "58",
        "deleted_at": "",
        "deployed": "",
        "hostname": "LOGmanager",
        "id": "133",
        "ip": "195.5.186.254",
        "last_check": "2018-07-26 14:00:09",
        "licensed_to": "",
        "platform": "LOGM-FW-VM",
        "serial": "VMW-423368d437a671c3-0b8475a71ec3f67a",
        "status_id": "1",
        "updated_at": "2017-08-10 12:00:17",
        "version": "fwd-1.0.1"
    },
    {
        "created_at": "2017-08-11 13:37:31",
        "customer_id": "59",
        "deleted_at": "",
        "deployed": "",
        "hostname": "LOGmanager",
        "id": "134",
        "ip": "193.35.102.254",
        "last_check": "2018-05-16 11:34:55",
        "licensed_to": "",
        "platform": "LOGM-48TB-H",
        "serial": "CZJ7290N1V",
        "status_id": "1",
        "updated_at": "2018-05-16 11:34:55",
        "version": "2.6.1"
    },
    {
        "created_at": "2017-08-16 11:07:03",
        "customer_id": "66",
        "deleted_at": "",
        "deployed": "",
        "hostname": "LOGmanager",
        "id": "135",
        "ip": "212.96.167.43",
        "last_check": "2018-07-26 14:00:35",
        "licensed_to": "",
        "platform": "LMDEMO1",
        "serial": "GEMY72800918",
        "status_id": "1",
        "updated_at": "2018-06-14 09:00:33",
        "version": "3.0.1"
    },
    {
        "created_at": "2017-09-04 12:14:11",
        "customer_id": "69",
        "deleted_at": "",
        "deployed": "",
        "hostname": "LOGmanager",
        "id": "136",
        "ip": "195.5.186.254",
        "last_check": "2018-07-26 14:00:36",
        "licensed_to": "",
        "platform": "LOGM-16TB-D",
        "serial": "6B8YGL2",
        "status_id": "1",
        "updated_at": "2018-05-02 12:01:24",
        "version": "3.0.1"
    },
    {
        "created_at": "2017-09-05 14:00:03",
        "customer_id": "1",
        "deleted_at": "",
        "deployed": "",
        "hostname": "LOGmanager",
        "id": "137",
        "ip": "85.239.64.80",
        "last_check": "2018-07-26 14:00:09",
        "licensed_to": "",
        "platform": "LOGM-FW-VM",
        "serial": "VMW-564d0e517d395651-f59a0dccbcc327b2",
        "status_id": "1",
        "updated_at": "2017-09-05 14:00:03",
        "version": "fwd-1.0.1"
    },
    {
        "created_at": "2017-09-27 11:35:50",
        "customer_id": "72",
        "deleted_at": "",
        "deployed": "",
        "hostname": "LOGmanager",
        "id": "138",
        "ip": "195.5.186.254",
        "last_check": "2018-07-26 14:00:10",
        "licensed_to": "",
        "platform": "LOGM-16TB-D",
        "serial": "C9MYGL2",
        "status_id": "1",
        "updated_at": "2018-01-23 13:00:19",
        "version": "2.6.2"
    },
    {
        "created_at": "2017-10-04 09:00:14",
        "customer_id": "1",
        "deleted_at": "",
        "deployed": "",
        "hostname": "LOGmanager",
        "id": "140",
        "ip": "91.139.14.162",
        "last_check": "2018-06-10 10:00:45",
        "licensed_to": "",
        "platform": "LMVM1",
        "serial": "VMW-4202b80831706c41-f45ffea19f4174d4",
        "status_id": "1",
        "updated_at": "2018-06-08 16:01:49",
        "version": "0.0.1-20180608_0021"
    },
    {
        "created_at": "2017-10-11 08:39:50",
        "customer_id": "61",
        "deleted_at": "",
        "deployed": "",
        "hostname": "LOGmanager",
        "id": "141",
        "ip": "91.139.14.162",
        "last_check": "2017-10-11 08:39:57",
        "licensed_to": "",
        "platform": "LMDEMO1",
        "serial": "GEMY729008CS",
        "status_id": "1",
        "updated_at": "2017-10-11 08:39:57",
        "version": "2.0.9"
    },
    {
        "created_at": "2017-10-11 08:55:58",
        "customer_id": "68",
        "deleted_at": "",
        "deployed": "",
        "hostname": "LOGmanager",
        "id": "142",
        "ip": "62.77.77.4",
        "last_check": "2018-07-26 14:00:36",
        "licensed_to": "",
        "platform": "LMDEMO1",
        "serial": "GEMY72900LE7",
        "status_id": "1",
        "updated_at": "2018-07-03 16:00:57",
        "version": "3.0.1"
    },
    {
        "created_at": "2017-10-18 12:17:21",
        "customer_id": "71",
        "deleted_at": "",
        "deployed": "",
        "hostname": "LOGmanager",
        "id": "143",
        "ip": "89.111.69.190",
        "last_check": "2018-07-26 14:00:36",
        "licensed_to": "",
        "platform": "LOGM-16TB-H",
        "serial": "CZJ7392W4P",
        "status_id": "1",
        "updated_at": "2018-05-02 12:01:25",
        "version": "3.0.1"
    },
    {
        "created_at": "2017-10-19 19:53:42",
        "customer_id": "1",
        "deleted_at": "",
        "deployed": "",
        "hostname": "LOGmanager",
        "id": "145",
        "ip": "91.139.14.162",
        "last_check": "2018-01-02 14:19:59",
        "licensed_to": "",
        "platform": "LMVM1",
        "serial": "VMW-420211b3dcc08ad3-b4ff87d37bff309c",
        "status_id": "1",
        "updated_at": "2018-01-02 14:19:48",
        "version": "0.0.1-install"
    },
    {
        "created_at": "2017-10-20 09:01:43",
        "customer_id": "70",
        "deleted_at": "",
        "deployed": "",
        "hostname": "LOGmanager",
        "id": "146",
        "ip": "195.5.186.41",
        "last_check": "2018-07-26 14:00:36",
        "licensed_to": "",
        "platform": "LOGM-16TB-D",
        "serial": "BHHMWL2",
        "status_id": "1",
        "updated_at": "2018-05-03 07:01:47",
        "version": "3.0.1"
    },
    {
        "created_at": "2017-10-20 13:20:22",
        "customer_id": "73",
        "deleted_at": "",
        "deployed": "",
        "hostname": "LOGmanager",
        "id": "147",
        "ip": "81.91.221.244",
        "last_check": "2018-07-26 14:00:37",
        "licensed_to": "",
        "platform": "LOGM-48TB-H",
        "serial": "CZJ73015VS",
        "status_id": "1",
        "updated_at": "2018-05-03 07:01:47",
        "version": "3.0.1"
    },
    {
        "created_at": "2017-10-23 14:04:31",
        "customer_id": "80",
        "deleted_at": "",
        "deployed": "",
        "hostname": "LOGmanager",
        "id": "148",
        "ip": "89.233.139.70",
        "last_check": "2018-07-26 14:00:35",
        "licensed_to": "",
        "platform": "LOGM-48TB-D",
        "serial": "785F1M2",
        "status_id": "1",
        "updated_at": "2018-05-16 13:00:41",
        "version": "3.0.1"
    },
    {
        "created_at": "2017-10-31 13:33:44",
        "customer_id": "74",
        "deleted_at": "",
        "deployed": "",
        "hostname": "LOGmanager",
        "id": "149",
        "ip": "80.188.47.106",
        "last_check": "2018-07-26 14:00:35",
        "licensed_to": "",
        "platform": "LOGM-16TB-H",
        "serial": "CZJ7410BQV",
        "status_id": "1",
        "updated_at": "2018-05-23 07:00:23",
        "version": "3.0.1"
    },
    {
        "created_at": "2017-10-31 16:09:26",
        "customer_id": "76",
        "deleted_at": "",
        "deployed": "",
        "hostname": "LOGmanager",
        "id": "150",
        "ip": "195.5.186.254",
        "last_check": "2018-07-26 14:00:35",
        "licensed_to": "",
        "platform": "LOGM-48TB-D",
        "serial": "FSTK1M2",
        "status_id": "1",
        "updated_at": "2018-05-16 12:01:37",
        "version": "3.0.1"
    },
    {
        "created_at": "2017-10-31 17:07:58",
        "customer_id": "73",
        "deleted_at": "",
        "deployed": "",
        "hostname": "LOGmanager",
        "id": "152",
        "ip": "81.91.221.244",
        "last_check": "2018-07-26 14:00:36",
        "licensed_to": "",
        "platform": "LOGM-48TB-H",
        "serial": "CZJ7421BFH",
        "status_id": "1",
        "updated_at": "2018-05-03 07:01:47",
        "version": "3.0.1"
    },
    {
        "created_at": "2017-11-06 16:00:24",
        "customer_id": "1",
        "deleted_at": "",
        "deployed": "",
        "hostname": "LOGmanager",
        "id": "153",
        "ip": "91.139.14.162",
        "last_check": "2018-07-17 12:00:53",
        "licensed_to": "",
        "platform": "LMVM1",
        "serial": "VMW-564d7d9ceee533ad-355d5eb8002ead0c",
        "status_id": "1",
        "updated_at": "2018-07-15 14:01:33",
        "version": "0.0.1-20180715_1448"
    },
    {
        "created_at": "2017-11-08 15:30:21",
        "customer_id": "1",
        "deleted_at": "",
        "deployed": "",
        "hostname": "LOGmanager",
        "id": "154",
        "ip": "82.117.130.30",
        "last_check": "2018-05-11 07:00:25",
        "licensed_to": "",
        "platform": "LMDEMO1",
        "serial": "GEMY72900905",
        "status_id": "1",
        "updated_at": "2017-12-12 10:00:22",
        "version": "2.5.1"
    },
    {
        "created_at": "2017-11-09 14:38:21",
        "customer_id": "1",
        "deleted_at": "",
        "deployed": "",
        "hostname": "LOGmanager",
        "id": "155",
        "ip": "94.199.47.209",
        "last_check": "2018-07-26 14:00:09",
        "licensed_to": "",
        "platform": "LOGM-FW-HW-I",
        "serial": "GEMY7290078P",
        "status_id": "1",
        "updated_at": "2017-11-16 11:00:22",
        "version": "2.5.0"
    },
    {
        "created_at": "2017-11-13 14:55:27",
        "customer_id": "77",
        "deleted_at": "",
        "deployed": "",
        "hostname": "LOGmanager",
        "id": "156",
        "ip": "185.103.146.12",
        "last_check": "2018-07-26 14:00:36",
        "licensed_to": "",
        "platform": "LOGM-48TB-D",
        "serial": "699PCM2",
        "status_id": "1",
        "updated_at": "2018-05-09 13:00:35",
        "version": "3.0.1"
    },
    {
        "created_at": "2017-12-01 08:18:00",
        "customer_id": "78",
        "deleted_at": "",
        "deployed": "",
        "hostname": "LOGmanager",
        "id": "157",
        "ip": "82.117.130.30",
        "last_check": "2018-07-26 14:00:37",
        "licensed_to": "",
        "platform": "LOGM-120TB-H",
        "serial": "CZ374649W9",
        "status_id": "1",
        "updated_at": "2018-05-02 13:00:28",
        "version": "3.0.1"
    },
    {
        "created_at": "2017-12-01 17:38:43",
        "customer_id": "78",
        "deleted_at": "",
        "deployed": "",
        "hostname": "LOGmanager",
        "id": "158",
        "ip": "82.117.130.30",
        "last_check": "2018-07-26 14:00:37",
        "licensed_to": "",
        "platform": "LOGM-120TB-H",
        "serial": "CZ374649V6",
        "status_id": "1",
        "updated_at": "2018-05-02 13:00:29",
        "version": "3.0.1"
    },
    {
        "created_at": "2017-12-04 09:22:50",
        "customer_id": "79",
        "deleted_at": "",
        "deployed": "",
        "hostname": "LOGmanager",
        "id": "159",
        "ip": "195.178.64.129",
        "last_check": "2018-07-26 14:00:10",
        "licensed_to": "",
        "platform": "LOGM-48TB-H",
        "serial": "CZJ7460DQG",
        "status_id": "1",
        "updated_at": "2017-12-06 09:00:30",
        "version": "2.5.1"
    },
    {
        "created_at": "2017-12-06 08:32:15",
        "customer_id": "1",
        "deleted_at": "",
        "deployed": "",
        "hostname": "LOGmanager",
        "id": "161",
        "ip": "91.214.156.2",
        "last_check": "2018-07-26 14:00:10",
        "licensed_to": "",
        "platform": "LOGM-16TB-H",
        "serial": "CZJ74704M7",
        "status_id": "1",
        "updated_at": "2018-01-26 09:19:23",
        "version": "2.6.2"
    },
    {
        "created_at": "2017-12-10 22:24:39",
        "customer_id": "81",
        "deleted_at": "",
        "deployed": "",
        "hostname": "LOGmanager",
        "id": "162",
        "ip": "212.158.159.126",
        "last_check": "2018-07-26 14:00:35",
        "licensed_to": "",
        "platform": "LOGM-48TB-D",
        "serial": "JL79DD2",
        "status_id": "1",
        "updated_at": "2018-05-11 09:01:45",
        "version": "3.0.1"
    },
    {
        "created_at": "2017-12-15 18:56:52",
        "customer_id": "82",
        "deleted_at": "",
        "deployed": "",
        "hostname": "LOGmanager",
        "id": "163",
        "ip": "147.231.40.104",
        "last_check": "2018-07-26 14:00:35",
        "licensed_to": "",
        "platform": "LOGM-48TB-D",
        "serial": "63T6MM2",
        "status_id": "1",
        "updated_at": "2018-05-02 14:01:33",
        "version": "3.0.1"
    },
    {
        "created_at": "2017-12-18 13:00:16",
        "customer_id": "1",
        "deleted_at": "",
        "deployed": "",
        "hostname": "LOGmanager",
        "id": "164",
        "ip": "188.120.220.241",
        "last_check": "2017-12-28 11:00:00",
        "licensed_to": "",
        "platform": "LOGM-FW-VM",
        "serial": "VMW-422eca79f0717ac9-bc6268e6d7d36fde",
        "status_id": "1",
        "updated_at": "2017-12-18 13:00:16",
        "version": "2.6.1"
    },
    {
        "created_at": "2017-12-25 03:48:26",
        "customer_id": "83",
        "deleted_at": "",
        "deployed": "",
        "hostname": "LOGmanager",
        "id": "170",
        "ip": "62.168.61.195",
        "last_check": "2018-06-05 13:00:20",
        "licensed_to": "",
        "platform": "LOGM-16TB-D",
        "serial": "CPKMSM2",
        "status_id": "1",
        "updated_at": "2018-01-02 14:00:30",
        "version": "2.6.1"
    },
    {
        "created_at": "2018-01-03 16:21:11",
        "customer_id": "84",
        "deleted_at": "",
        "deployed": "",
        "hostname": "LOGmanager",
        "id": "173",
        "ip": "82.99.172.130",
        "last_check": "2018-07-26 14:00:35",
        "licensed_to": "",
        "platform": "LOGM-48TB-D",
        "serial": "9VD1XM2",
        "status_id": "1",
        "updated_at": "2018-04-23 14:02:00",
        "version": "3.0.1"
    },
    {
        "created_at": "2018-01-04 08:35:45",
        "customer_id": "85",
        "deleted_at": "",
        "deployed": "",
        "hostname": "LOGmanager",
        "id": "174",
        "ip": "193.35.104.97",
        "last_check": "2018-07-26 14:00:09",
        "licensed_to": "",
        "platform": "LOGM-16TB-D",
        "serial": "3SFVWM2",
        "status_id": "1",
        "updated_at": "2018-01-26 11:00:05",
        "version": "2.6.2"
    },
    {
        "created_at": "2018-01-05 00:29:22",
        "customer_id": "86",
        "deleted_at": "",
        "deployed": "",
        "hostname": "LOGmanager",
        "id": "176",
        "ip": "82.142.94.178",
        "last_check": "2018-07-26 14:00:36",
        "licensed_to": "",
        "platform": "LOGM-16TB-D",
        "serial": "D8HTWM2",
        "status_id": "1",
        "updated_at": "2018-06-05 12:00:16",
        "version": "3.0.1"
    },
    {
        "created_at": "2018-01-10 16:24:08",
        "customer_id": "87",
        "deleted_at": "",
        "deployed": "",
        "hostname": "LOGmanager",
        "id": "177",
        "ip": "195.245.209.30",
        "last_check": "2018-07-26 14:00:36",
        "licensed_to": "",
        "platform": "LOGM-48TB-D",
        "serial": "HCFSWM2",
        "status_id": "1",
        "updated_at": "2018-05-03 10:01:00",
        "version": "3.0.1"
    },
    {
        "created_at": "2018-01-16 13:52:39",
        "customer_id": "89",
        "deleted_at": "",
        "deployed": "",
        "hostname": "LOGmanager",
        "id": "181",
        "ip": "90.181.243.2",
        "last_check": "2018-06-14 11:00:43",
        "licensed_to": "",
        "platform": "LOGM-48TB-D",
        "serial": "HCF1XM2",
        "status_id": "1",
        "updated_at": "2018-05-07 05:00:34",
        "version": "3.0.1"
    },
    {
        "created_at": "2018-01-25 10:00:26",
        "customer_id": "1",
        "deleted_at": "",
        "deployed": "",
        "hostname": "LOGmanager",
        "id": "187",
        "ip": "62.209.219.2",
        "last_check": "2018-05-20 07:00:18",
        "licensed_to": "",
        "platform": "LOGM-FW-MS",
        "serial": "MS-5842-7047-9904-7365-1328-1347-75",
        "status_id": "1",
        "updated_at": "2018-01-25 10:00:26",
        "version": "2.6.1"
    },
    {
        "created_at": "2018-02-12 15:10:13",
        "customer_id": "1",
        "deleted_at": "",
        "deployed": "",
        "hostname": "LOGmanager",
        "id": "190",
        "ip": "91.139.14.162",
        "last_check": "2018-02-13 17:00:13",
        "licensed_to": "",
        "platform": "LMVM1",
        "serial": "VMW-4202d2f2cbe5c8f0-2baeae93478b4375",
        "status_id": "1",
        "updated_at": "2018-02-12 15:10:13",
        "version": "1.DEV"
    },
    {
        "created_at": "2018-02-13 12:42:59",
        "customer_id": "1",
        "deleted_at": "",
        "deployed": "",
        "hostname": "LOGmanager",
        "id": "191",
        "ip": "195.113.178.106",
        "last_check": "2018-03-08 08:00:38",
        "licensed_to": "",
        "platform": "LMDEMO1",
        "serial": "GEMY80100HAN",
        "status_id": "1",
        "updated_at": "2018-02-13 16:00:13",
        "version": "2.6.2"
    },
    {
        "created_at": "2018-02-15 16:10:32",
        "customer_id": "90",
        "deleted_at": "",
        "deployed": "",
        "hostname": "LOGmanager",
        "id": "192",
        "ip": "193.86.243.15",
        "last_check": "2018-07-26 14:00:36",
        "licensed_to": "",
        "platform": "LOGM-48TB-D-G2",
        "serial": "46N4JN2",
        "status_id": "1",
        "updated_at": "2018-05-02 16:01:41",
        "version": "3.0.1"
    },
    {
        "created_at": "2018-02-27 00:07:01",
        "customer_id": "92",
        "deleted_at": "",
        "deployed": "",
        "hostname": "LOGmanager",
        "id": "193",
        "ip": "90.182.229.2",
        "last_check": "2018-07-26 14:00:35",
        "licensed_to": "",
        "platform": "LOGM-16TB-D",
        "serial": "F0K6JN2",
        "status_id": "1",
        "updated_at": "2018-05-02 10:03:16",
        "version": "3.0.1"
    },
    {
        "created_at": "2018-03-06 17:29:22",
        "customer_id": "97",
        "deleted_at": "",
        "deployed": "",
        "hostname": "LOGmanager",
        "id": "194",
        "ip": "185.16.180.2",
        "last_check": "2018-05-07 08:24:08",
        "licensed_to": "",
        "platform": "LOGM-48TB-H",
        "serial": "CZJ7421J71",
        "status_id": "1",
        "updated_at": "2018-04-13 11:00:33",
        "version": "2.6.2"
    },
    {
        "created_at": "2018-03-13 12:56:23",
        "customer_id": "1",
        "deleted_at": "",
        "deployed": "",
        "hostname": "LOGmanager",
        "id": "195",
        "ip": "89.24.124.130",
        "last_check": "2018-07-26 14:00:35",
        "licensed_to": "",
        "platform": "LMDEMO1",
        "serial": "GEMY739000DJ",
        "status_id": "1",
        "updated_at": "2018-04-23 10:01:41",
        "version": "3.0.1"
    },
    {
        "created_at": "2018-03-13 13:39:39",
        "customer_id": "94",
        "deleted_at": "",
        "deployed": "",
        "hostname": "LOGmanager",
        "id": "196",
        "ip": "193.239.0.12",
        "last_check": "2018-07-26 14:00:36",
        "licensed_to": "",
        "platform": "LMDEMO1",
        "serial": "GEMY743001Y3",
        "status_id": "1",
        "updated_at": "2018-06-07 12:01:56",
        "version": "3.0.1"
    },
    {
        "created_at": "2018-03-27 14:18:49",
        "customer_id": "94",
        "deleted_at": "",
        "deployed": "",
        "hostname": "LOGmanager",
        "id": "197",
        "ip": "91.139.14.162",
        "last_check": "2018-03-27 14:18:49",
        "licensed_to": "",
        "platform": "LMDEMO1",
        "serial": "GEMY743001F3",
        "status_id": "1",
        "updated_at": "2018-03-27 14:18:49",
        "version": "0.0.1-install"
    },
    {
        "created_at": "2018-04-06 11:31:13",
        "customer_id": "95",
        "deleted_at": "",
        "deployed": "",
        "hostname": "LOGmanager",
        "id": "198",
        "ip": "85.237.234.125",
        "last_check": "2018-07-16 06:31:07",
        "licensed_to": "",
        "platform": "LMDEMO1",
        "serial": "GEMY808002VP",
        "status_id": "1",
        "updated_at": "2018-07-16 06:30:52",
        "version": "3.0.1"
    },
    {
        "created_at": "2018-04-06 12:05:11",
        "customer_id": "1",
        "deleted_at": "",
        "deployed": "",
        "hostname": "LOGmanager",
        "id": "199",
        "ip": "80.188.162.188",
        "last_check": "2018-07-25 06:00:16",
        "licensed_to": "",
        "platform": "LMDEMO1",
        "serial": "GEMY808002SH",
        "status_id": "1",
        "updated_at": "2018-05-18 09:01:53",
        "version": "3.0.1"
    },
    {
        "created_at": "2018-04-06 12:35:17",
        "customer_id": "1",
        "deleted_at": "",
        "deployed": "",
        "hostname": "LOGmanager",
        "id": "200",
        "ip": "91.139.14.162",
        "last_check": "2018-07-02 07:01:44",
        "licensed_to": "",
        "platform": "LMDEMO1",
        "serial": "GEMY80800337",
        "status_id": "1",
        "updated_at": "2018-06-28 09:00:56",
        "version": "3.0.1"
    },
    {
        "created_at": "2018-04-06 12:55:43",
        "customer_id": "1",
        "deleted_at": "",
        "deployed": "",
        "hostname": "LOGmanager",
        "id": "201",
        "ip": "91.139.14.162",
        "last_check": "2018-05-15 13:03:04",
        "licensed_to": "",
        "platform": "LMDEMO1",
        "serial": "GEMY808002KK",
        "status_id": "1",
        "updated_at": "2018-04-06 14:00:18",
        "version": "2.6.2"
    },
    {
        "created_at": "2018-04-06 14:16:40",
        "customer_id": "96",
        "deleted_at": "",
        "deployed": "",
        "hostname": "LOGmanager",
        "id": "202",
        "ip": "82.142.116.179",
        "last_check": "2018-07-26 14:00:37",
        "licensed_to": "",
        "platform": "LOGM-16TB-H",
        "serial": "CZJ8122T9K",
        "status_id": "1",
        "updated_at": "2018-05-23 09:00:32",
        "version": "3.0.1"
    },
    {
        "created_at": "2018-04-11 08:08:01",
        "customer_id": "97",
        "deleted_at": "",
        "deployed": "",
        "hostname": "LOGmanager",
        "id": "203",
        "ip": "37.48.3.166",
        "last_check": "2018-05-07 07:55:31",
        "licensed_to": "",
        "platform": "LOGM-48TB-H",
        "serial": "CZJ8122V0B",
        "status_id": "1",
        "updated_at": "2018-04-11 09:00:38",
        "version": "2.6.2"
    },
    {
        "created_at": "2018-04-11 14:18:37",
        "customer_id": "98",
        "deleted_at": "",
        "deployed": "",
        "hostname": "LOGmanager",
        "id": "204",
        "ip": "193.165.247.194",
        "last_check": "2018-07-26 14:00:35",
        "licensed_to": "",
        "platform": "LOGM-48TB-D-G2",
        "serial": "9KB78P2",
        "status_id": "1",
        "updated_at": "2018-05-02 17:00:46",
        "version": "3.0.1"
    },
    {
        "created_at": "2018-04-17 13:00:18",
        "customer_id": "1",
        "deleted_at": "",
        "deployed": "",
        "hostname": "LOGmanager",
        "id": "205",
        "ip": "91.139.14.177",
        "last_check": "2018-07-26 14:00:09",
        "licensed_to": "",
        "platform": "LOGM-FW-VM",
        "serial": "VMW-423dfbb3ddaafb7c-94433c634a76a18e",
        "status_id": "1",
        "updated_at": "2018-04-17 13:00:27",
        "version": "2.6.1"
    },
    {
        "created_at": "2018-05-04 09:07:45",
        "customer_id": "65",
        "deleted_at": "",
        "deployed": "",
        "hostname": "LOGmanager",
        "id": "206",
        "ip": "82.117.130.30",
        "last_check": "2018-07-26 14:00:35",
        "licensed_to": "",
        "platform": "LMDEMO1",
        "serial": "GEMY81100GNW",
        "status_id": "1",
        "updated_at": "2018-07-11 09:01:17",
        "version": "3.0.1"
    },
    {
        "created_at": "2018-05-04 09:47:11",
        "customer_id": "99",
        "deleted_at": "",
        "deployed": "",
        "hostname": "LOGmanager",
        "id": "207",
        "ip": "91.195.203.254",
        "last_check": "2018-07-26 14:00:36",
        "licensed_to": "",
        "platform": "LMDEMO1",
        "serial": "GEMY81100H6Y",
        "status_id": "1",
        "updated_at": "2018-06-19 13:37:45",
        "version": "3.0.1"
    },
    {
        "created_at": "2018-05-04 13:41:29",
        "customer_id": "101",
        "deleted_at": "",
        "deployed": "",
        "hostname": "LOGmanager",
        "id": "208",
        "ip": "82.142.83.56",
        "last_check": "2018-07-26 14:00:35",
        "licensed_to": "",
        "platform": "LOGM-48TB-D-G2",
        "serial": "3L0VHP2",
        "status_id": "1",
        "updated_at": "2018-05-04 14:01:00",
        "version": "3.0.1"
    },
    {
        "created_at": "2018-05-04 17:11:00",
        "customer_id": "1",
        "deleted_at": "",
        "deployed": "",
        "hostname": "LOGmanager",
        "id": "209",
        "ip": "82.117.130.30",
        "last_check": "2018-07-26 14:00:35",
        "licensed_to": "",
        "platform": "LOGM-120TB-D-G2",
        "serial": "2HM9SP2",
        "status_id": "1",
        "updated_at": "2018-05-11 12:00:58",
        "version": "3.0.1"
    },
    {
        "created_at": "2018-05-15 12:09:20",
        "customer_id": "102",
        "deleted_at": "",
        "deployed": "",
        "hostname": "LOGmanager",
        "id": "210",
        "ip": "91.139.14.162",
        "last_check": "2018-05-16 10:01:29",
        "licensed_to": "",
        "platform": "LMDEMO1",
        "serial": "GEMY81100H6S",
        "status_id": "1",
        "updated_at": "2018-05-16 10:01:29",
        "version": "3.0.1"
    },
    {
        "created_at": "2018-05-15 15:13:32",
        "customer_id": "1",
        "deleted_at": "",
        "deployed": "",
        "hostname": "LOGmanager",
        "id": "211",
        "ip": "82.117.130.30",
        "last_check": "2018-07-26 14:00:35",
        "licensed_to": "",
        "platform": "LOGM-120TB-D-G2",
        "serial": "2HL9SP2",
        "status_id": "1",
        "updated_at": "2018-05-15 16:00:12",
        "version": "3.0.1"
    },
    {
        "created_at": "2018-05-31 11:53:40",
        "customer_id": "103",
        "deleted_at": "",
        "deployed": "",
        "hostname": "LOGmanager",
        "id": "212",
        "ip": "195.113.227.252",
        "last_check": "2018-07-26 14:00:35",
        "licensed_to": "",
        "platform": "LOGM-48TB-H-G2",
        "serial": "CZ28210BJ5",
        "status_id": "1",
        "updated_at": "2018-05-31 17:01:01",
        "version": "3.0.2"
    },
    {
        "created_at": "2018-05-31 12:25:44",
        "customer_id": "104",
        "deleted_at": "",
        "deployed": "",
        "hostname": "LOGmanager",
        "id": "213",
        "ip": "80.188.197.18",
        "last_check": "2018-07-26 14:00:36",
        "licensed_to": "",
        "platform": "LOGM-16TB-H-G2",
        "serial": "CZJ8210509",
        "status_id": "1",
        "updated_at": "2018-05-31 17:01:01",
        "version": "3.0.2"
    },
    {
        "created_at": "2018-06-07 09:40:47",
        "customer_id": "27",
        "deleted_at": "",
        "deployed": "",
        "hostname": "LOGmanager",
        "id": "214",
        "ip": "78.31.25.36",
        "last_check": "2018-07-26 14:00:35",
        "licensed_to": "",
        "platform": "LMDEMO1",
        "serial": "GEMY81400253",
        "status_id": "1",
        "updated_at": "2018-06-07 11:00:36",
        "version": "3.0.1"
    },
    {
        "created_at": "2018-06-11 16:38:34",
        "customer_id": "105",
        "deleted_at": "",
        "deployed": "",
        "hostname": "LOGmanager",
        "id": "215",
        "ip": "91.139.14.162",
        "last_check": "2018-06-11 17:01:57",
        "licensed_to": "",
        "platform": "LOGM-48TB-D-G2",
        "serial": "1YTS9Q2",
        "status_id": "1",
        "updated_at": "2018-06-11 17:01:57",
        "version": "3.0.1"
    },
    {
        "created_at": "2018-06-20 12:19:56",
        "customer_id": "63",
        "deleted_at": "",
        "deployed": "",
        "hostname": "LOGmanager",
        "id": "216",
        "ip": "91.139.14.162",
        "last_check": "2018-06-20 14:00:19",
        "licensed_to": "",
        "platform": "LMDEMO1",
        "serial": "GEMY814001W5",
        "status_id": "1",
        "updated_at": "2018-06-20 14:00:19",
        "version": "3.0.1"
    },
    {
        "created_at": "2018-06-20 12:39:32",
        "customer_id": "1",
        "deleted_at": "",
        "deployed": "",
        "hostname": "LOGmanager",
        "id": "217",
        "ip": "91.139.14.162",
        "last_check": "2018-06-20 12:39:33",
        "licensed_to": "",
        "platform": "LMDEMO1",
        "serial": "GEMY814000ND",
        "status_id": "1",
        "updated_at": "2018-06-20 12:39:33",
        "version": "0.0.1-install"
    },
    {
        "created_at": "2018-06-20 12:57:52",
        "customer_id": "1",
        "deleted_at": "",
        "deployed": "",
        "hostname": "LOGmanager",
        "id": "218",
        "ip": "185.153.194.141",
        "last_check": "2018-07-26 14:00:35",
        "licensed_to": "",
        "platform": "LMDEMO1",
        "serial": "GEMY814000QY",
        "status_id": "1",
        "updated_at": "2018-07-02 08:14:18",
        "version": "3.0.1"
    },
    {
        "created_at": "2018-06-24 22:52:39",
        "customer_id": "106",
        "deleted_at": "",
        "deployed": "",
        "hostname": "LOGmanager",
        "id": "219",
        "ip": "193.179.6.99",
        "last_check": "2018-07-26 14:00:36",
        "licensed_to": "",
        "platform": "LOGM-120TB-D-G2",
        "serial": "1BWGGQ2",
        "status_id": "1",
        "updated_at": "2018-06-27 09:01:23",
        "version": "3.0.1"
    },
    {
        "created_at": "2018-06-26 09:53:24",
        "customer_id": "107",
        "deleted_at": "",
        "deployed": "",
        "hostname": "LOGmanager",
        "id": "220",
        "ip": "91.139.14.162",
        "last_check": "2018-06-26 09:53:25",
        "licensed_to": "",
        "platform": "LMDEMO1",
        "serial": "GEMY81100H7F",
        "status_id": "1",
        "updated_at": "2018-06-26 09:53:25",
        "version": "0.0.1-install"
    },
    {
        "created_at": "2018-06-26 10:55:22",
        "customer_id": "107",
        "deleted_at": "",
        "deployed": "",
        "hostname": "LOGmanager",
        "id": "221",
        "ip": "185.50.213.248",
        "last_check": "2018-07-26 14:00:36",
        "licensed_to": "",
        "platform": "LMDEMO1",
        "serial": "GEMY81100GRY",
        "status_id": "1",
        "updated_at": "2018-07-18 21:00:16",
        "version": "3.0.1"
    },
    {
        "created_at": "2018-06-26 11:18:09",
        "customer_id": "107",
        "deleted_at": "",
        "deployed": "",
        "hostname": "LOGmanager",
        "id": "222",
        "ip": "185.50.213.214",
        "last_check": "2018-07-26 14:00:35",
        "licensed_to": "",
        "platform": "LMDEMO1",
        "serial": "GEMY81100GR3",
        "status_id": "1",
        "updated_at": "2018-07-04 07:03:29",
        "version": "3.0.1"
    },
    {
        "created_at": "2018-06-26 11:47:39",
        "customer_id": "1",
        "deleted_at": "",
        "deployed": "",
        "hostname": "LOGmanager",
        "id": "223",
        "ip": "78.24.10.132",
        "last_check": "2018-07-26 14:00:35",
        "licensed_to": "",
        "platform": "LOGM-120TB-D-G2",
        "serial": "9GSJGQ2",
        "status_id": "1",
        "updated_at": "2018-06-26 12:00:37",
        "version": "3.0.1"
    },
    {
        "created_at": "2018-06-26 13:16:28",
        "customer_id": "1",
        "deleted_at": "",
        "deployed": "",
        "hostname": "LOGmanager",
        "id": "224",
        "ip": "91.139.14.162",
        "last_check": "2018-06-26 13:16:28",
        "licensed_to": "",
        "platform": "LOGM-48TB-D-G2",
        "serial": "9GQKGQ2",
        "status_id": "1",
        "updated_at": "2018-06-26 13:16:28",
        "version": "0.0.1-install"
    },
    {
        "created_at": "2018-06-28 12:32:20",
        "customer_id": "108",
        "deleted_at": "",
        "deployed": "",
        "hostname": "LOGmanager",
        "id": "225",
        "ip": "193.35.104.225",
        "last_check": "2018-07-26 14:00:36",
        "licensed_to": "",
        "platform": "LOGM-16TB-D-G2",
        "serial": "H68KGQ2",
        "status_id": "1",
        "updated_at": "2018-07-16 06:24:40",
        "version": "3.0.3"
    },
    {
        "created_at": "2018-06-28 21:49:15",
        "customer_id": "112",
        "deleted_at": "",
        "deployed": "",
        "hostname": "LOGmanager",
        "id": "226",
        "ip": "91.139.14.162",
        "last_check": "2018-06-28 22:02:06",
        "licensed_to": "",
        "platform": "LOGM-16TB-D-G2",
        "serial": "H66BGQ2",
        "status_id": "1",
        "updated_at": "2018-06-28 22:01:02",
        "version": "3.0.3"
    },
    {
        "created_at": "2018-06-28 22:37:47",
        "customer_id": "111",
        "deleted_at": "",
        "deployed": "",
        "hostname": "LOGmanager",
        "id": "227",
        "ip": "95.80.198.220",
        "last_check": "2018-07-26 14:00:35",
        "licensed_to": "",
        "platform": "LOGM-16TB-D-G2",
        "serial": "H69DGQ2",
        "status_id": "1",
        "updated_at": "2018-07-11 08:50:42",
        "version": "3.0.3"
    },
    {
        "created_at": "2018-06-28 23:08:47",
        "customer_id": "110",
        "deleted_at": "",
        "deployed": "",
        "hostname": "LOGmanager",
        "id": "228",
        "ip": "91.139.14.162",
        "last_check": "2018-06-29 00:00:59",
        "licensed_to": "",
        "platform": "LOGM-16TB-D-G2",
        "serial": "H66HGQ2",
        "status_id": "1",
        "updated_at": "2018-06-28 23:08:48",
        "version": "0.0.1-install"
    },
    {
        "created_at": "2018-07-04 10:05:30",
        "customer_id": "1",
        "deleted_at": "",
        "deployed": "",
        "hostname": "LOGmanager",
        "id": "229",
        "ip": "185.50.213.214",
        "last_check": "2018-07-14 05:00:04",
        "licensed_to": "",
        "platform": "LOGM-FW-VM",
        "serial": "VMW-564daed0c1e7cb8e-ccafc625a43eb076",
        "status_id": "1",
        "updated_at": "2018-07-04 10:05:35",
        "version": "2.6.1"
    },
    {
        "created_at": "2018-07-09 12:15:51",
        "customer_id": "115",
        "deleted_at": "",
        "deployed": "",
        "hostname": "LOGmanager",
        "id": "230",
        "ip": "94.199.47.209",
        "last_check": "2018-07-26 14:00:35",
        "licensed_to": "",
        "platform": "LOGM-16TB-D-G2",
        "serial": "2KNQKQ2",
        "status_id": "1",
        "updated_at": "2018-07-18 01:19:56",
        "version": "3.0.3"
    },
    {
        "created_at": "2018-07-09 12:59:45",
        "customer_id": "1",
        "deleted_at": "",
        "deployed": "",
        "hostname": "LOGmanager",
        "id": "231",
        "ip": "89.24.96.122",
        "last_check": "2018-07-26 14:00:10",
        "licensed_to": "",
        "platform": "LOGM-FW-VM",
        "serial": "VMW-564d1bba6d938394-10a466f35135732a",
        "status_id": "1",
        "updated_at": "2018-07-09 12:59:46",
        "version": "2.6.1"
    },
    {
        "created_at": "2018-07-09 13:44:40",
        "customer_id": "1",
        "deleted_at": "",
        "deployed": "",
        "hostname": "LOGmanager",
        "id": "232",
        "ip": "89.24.96.122",
        "last_check": "2018-07-09 13:44:40",
        "licensed_to": "",
        "platform": "LOGM-FW-VM",
        "serial": "VMW-564dabb8dccd760c-511bfe6334a7b995",
        "status_id": "1",
        "updated_at": "2018-07-09 13:44:40",
        "version": "2.6.1"
    },
    {
        "created_at": "2018-07-09 14:14:47",
        "customer_id": "113",
        "deleted_at": "",
        "deployed": "",
        "hostname": "LOGmanager",
        "id": "233",
        "ip": "91.139.14.162",
        "last_check": "2018-07-09 14:14:47",
        "licensed_to": "",
        "platform": "LMDEMO1",
        "serial": "GEMY82200A9K",
        "status_id": "1",
        "updated_at": "2018-07-09 14:14:47",
        "version": "0.0.1-install"
    },
    {
        "created_at": "2018-07-09 15:00:05",
        "customer_id": "1",
        "deleted_at": "",
        "deployed": "",
        "hostname": "LOGmanager",
        "id": "234",
        "ip": "89.24.96.122",
        "last_check": "2018-07-22 10:00:22",
        "licensed_to": "",
        "platform": "LOGM-FW-VM",
        "serial": "VMW-564d17fecdbfc8c2-1610123bcfac0723",
        "status_id": "1",
        "updated_at": "2018-07-09 15:00:05",
        "version": "2.6.1"
    },
    {
        "created_at": "2018-07-09 15:06:14",
        "customer_id": "114",
        "deleted_at": "",
        "deployed": "",
        "hostname": "LOGmanager",
        "id": "235",
        "ip": "91.139.14.162",
        "last_check": "2018-07-09 15:06:15",
        "licensed_to": "",
        "platform": "LOGM-16TB-D-G2",
        "serial": "44VTKQ2",
        "status_id": "1",
        "updated_at": "2018-07-09 15:06:15",
        "version": "0.0.1-install"
    },
    {
        "created_at": "2018-07-11 09:00:20",
        "customer_id": "1",
        "deleted_at": "",
        "deployed": "",
        "hostname": "LOGmanager",
        "id": "236",
        "ip": "89.24.96.122",
        "last_check": "2018-07-26 14:00:09",
        "licensed_to": "",
        "platform": "LOGM-FW-VM",
        "serial": "VMW-564dfd2db9549509-803b921121b35a12",
        "status_id": "1",
        "updated_at": "2018-07-11 09:00:20",
        "version": "2.6.1"
    },
    {
        "created_at": "2018-07-11 11:00:22",
        "customer_id": "1",
        "deleted_at": "",
        "deployed": "",
        "hostname": "LOGmanager",
        "id": "237",
        "ip": "89.24.96.122",
        "last_check": "2018-07-11 12:00:09",
        "licensed_to": "",
        "platform": "LOGM-FW-VM",
        "serial": "VMW-564d1b4f605fe3c8-cb4e39428e011c44",
        "status_id": "1",
        "updated_at": "2018-07-11 11:00:23",
        "version": "2.6.1"
    },
    {
        "created_at": "2018-07-25 14:08:18",
        "customer_id": "117",
        "deleted_at": "",
        "deployed": "",
        "hostname": "LOGmanager",
        "id": "238",
        "ip": "91.139.14.162",
        "last_check": "2018-07-25 14:08:18",
        "licensed_to": "",
        "platform": "LMDEMO1",
        "serial": "GEMY827005TV",
        "status_id": "1",
        "updated_at": "2018-07-25 14:08:18",
        "version": "0.0.1-install"
    }
]
